// Jest Snapshot v1, https://goo.gl/fbAQLP

exports[`ActionButton tests renders a null ActionButton component 1`] = `null`;

exports[`ActionButton tests renders link ActionButton component 1`] = `
<Link
  className="actionBtn "
  replace={false}
  to="someplace"
>
  test button 
</Link>
`;

exports[`ActionButton tests renders the button ActionButton component 1`] = `
<button
  className="actionBtn "
  onClick={[Function]}
>
  test button 
</button>
`;
