// Jest Snapshot v1, https://goo.gl/fbAQLP

exports[`CharacterCard tests renders a default CharacterCard component 1`] = `
<div
  className="character-card mdl-card mdl-shadow--2dp mdl-cell mdl-cell--2-col mdl-cell--4-col-tablet mdl-cell--6-col-phone"
>
  <div
    className="mdl-card_title mdl-card--expand"
  >
    <Link
      className="mdl-button mdl-js-button mdl-js-ripple-effect"
      replace={false}
      to="character/bio/1011334"
    >
      <picture>
        <source
          media="(max-width: 1199px)"
          srcSet="https://i.annihil.us/u/prod/marvel/i/mg/c/e0/535fecbbb9784/portrait_incredible.jpg"
        />
        <source
          media="(min-width: 1200px)"
          srcSet="https://i.annihil.us/u/prod/marvel/i/mg/c/e0/535fecbbb9784/portrait_uncanny.jpg"
        />
        <img
          alt="Placeholder"
          srcSet="data:image/gif;base64,R0lGODlhAQABAAAAACH5BAEKAAEALAAAAAABAAEAAAICTAEAOw=="
        />
      </picture>
    </Link>
  </div>
  <div
    className="mdl-card__actions"
  >
    <Link
      className="mdl-button mdl-js-button mdl-js-ripple-effect characterName"
      replace={false}
      to="character/bio/1011334"
    >
      3-D Man
    </Link>
  </div>
</div>
`;

exports[`CharacterCard tests renders a default CharacterCard component during loading 1`] = `
<div
  className="character-card mdl-card mdl-shadow--2dp mdl-cell mdl-cell--2-col mdl-cell--4-col-tablet mdl-cell--6-col-phone"
>
  <div
    className="mdl-card_title mdl-card--expand"
  >
    <img
      alt="3-D Man"
      src="https://i.annihil.us/u/prod/marvel/i/mg/c/e0/535fecbbb9784/portrait_uncanny.jpg"
    />
  </div>
  <div
    className="mdl-card__actions"
  >
    <div
      className="characterName"
    >
      3-D Man
    </div>
  </div>
</div>
`;
