// Jest Snapshot v1, https://goo.gl/fbAQLP

exports[`InfoPanel tests renders a default InfoPanel component 1`] = `
<div>
  <div
    className="infoPanel mdl-grid"
  >
    <div
      className="mdl-cell mdl-cell--12-col"
    >
      <h2>
        Characters
      </h2>
    </div>
    <div
      className="mdl-cell mdl-cell--12-col"
    >
      <div
        className="infoCell mdl-grid"
      >
        <div
          className="mdl-cell mdl-cell--3-col mdl-cell--4-col-tablet"
        >
          <img
            alt="Avengers: The Initiative (2007 - 2010)"
            src="https://i.annihil.us/u/prod/marvel/i/mg/5/a0/514a2ed3302f5/portrait_xlarge.jpg"
          />
          <div
            className="title"
            id="tt0"
          >
            Avengers: The Initiative (2007 - 2010)
          </div>
        </div>
        <div
          className="mdl-cell mdl-cell--3-col mdl-cell--4-col-tablet"
        >
          <img
            alt="Deadpool (1997 - 2002)"
            src="https://i.annihil.us/u/prod/marvel/i/mg/7/03/5130f646465e3/portrait_xlarge.jpg"
          />
          <div
            className="title"
            id="tt1"
          >
            Deadpool (1997 - 2002)
          </div>
        </div>
        <div
          className="mdl-cell mdl-cell--3-col mdl-cell--4-col-tablet"
        >
          <img
            alt="Marvel Premiere (1972 - 1981)"
            src="https://i.annihil.us/u/prod/marvel/i/mg/3/b0/57c75a7f21509/portrait_xlarge.jpg"
          />
          <div
            className="title"
            id="tt2"
          >
            Marvel Premiere (1972 - 1981)
          </div>
        </div>
      </div>
    </div>
  </div>
</div>
`;
