// Jest Snapshot v1, https://goo.gl/fbAQLP

exports[`LogoHeading tests renders a LogoHeading component with kids 1`] = `
<header
  className="mdl-layout__header mdl-layout__header--transparent"
>
  <div
    className="mdl-layout__header-row"
  >
    <Link
      className="logo-heading"
      replace={false}
      to="/"
    >
      test title
    </Link>
  </div>
  <div
    className="mdl-layout__header-row"
  >
    <div>
      some test children
    </div>
  </div>
</header>
`;

exports[`LogoHeading tests renders a default LogoHeading component 1`] = `
<header
  className="mdl-layout__header mdl-layout__header--transparent"
>
  <div
    className="mdl-layout__header-row"
  >
    <Link
      className="logo-heading"
      replace={false}
      to="/"
    >
      test title
    </Link>
  </div>
</header>
`;
